{
  "module_id":"1",
  "tabs": [
    {
      "tab_id":"1",
      "tab_title": "Content",
      "tab_data":"https://developer.android.com/guide/components/fundamentals.html"
    },
    {
      "tab_id":"2",
      "tab_title": "Tutorial",
      "tab_data":"http://www.tutorialspoint.com/android/"
    },
    {
      "tab_id":"3",
      "tab_title": "Example",
      "tab_data":"http://www.javatpoint.com/android-tutorial"
    }
  ]

}